  {
  "space": {"category": "block","sounds": [{"name": "space","stream": false},{"name": "space1","stream":false},{"name": "space2","stream":false},{"name": "space3","stream":false}]},
  "aspectLevelUp": {"category": "block","sounds": [{"name":"aspectLevelUp","stream": false}]}
  }